^board_ps.hlsl
^board_vs.hlsl
^geometric_primitive_ps.hlsl
^geometric_primitive_vs.hlsl
^model_ps.hlsl
^model_vs.hlsl
^skinned_mesh_ps.hlsl
^skinned_mesh_vs.hlsl
^sprite_ps.hlsl
^sprite_vs.hlsl
^static_mesh_ps.hlsl
^static_mesh_vs.hlsl
D:\後期チーム制作\3dgp.00\Data\shader\board_ps.cso
D:\後期チーム制作\3dgp.00\Data\shader\board_vs.cso
D:\後期チーム制作\3dgp.00\Data\shader\geometric_primitive_ps.cso
D:\後期チーム制作\3dgp.00\Data\shader\geometric_primitive_vs.cso
D:\後期チーム制作\3dgp.00\Data\shader\model_ps.cso
D:\後期チーム制作\3dgp.00\Data\shader\model_vs.cso
D:\後期チーム制作\3dgp.00\Data\shader\skinned_mesh_ps.cso
D:\後期チーム制作\3dgp.00\Data\shader\skinned_mesh_vs.cso
D:\後期チーム制作\3dgp.00\Data\shader\sprite_ps.cso
D:\後期チーム制作\3dgp.00\Data\shader\sprite_vs.cso
D:\後期チーム制作\3dgp.00\Data\shader\static_mesh_ps.cso
D:\後期チーム制作\3dgp.00\Data\shader\static_mesh_vs.cod
D:\後期チーム制作\3dgp.00\Data\shader\board_ps.cod
D:\後期チーム制作\3dgp.00\Data\shader\board_vs.cod
D:\後期チーム制作\3dgp.00\Data\shader\geometric_primitive_ps.cod
D:\後期チーム制作\3dgp.00\Data\shader\geometric_primitive_vs.cod
D:\後期チーム制作\3dgp.00\Data\shader\model_ps.cod
D:\後期チーム制作\3dgp.00\Data\shader\model_vs.cso
D:\後期チーム制作\3dgp.00\Data\shader\skinned_mesh_ps.cod
D:\後期チーム制作\3dgp.00\Data\shader\skinned_mesh_vs.cod
D:\後期チーム制作\3dgp.00\Data\shader\sprite_ps.cod
D:\後期チーム制作\3dgp.00\Data\shader\sprite_vs.cod
D:\後期チーム制作\3dgp.00\Data\shader\static_mesh_ps.cod
D:\後期チーム制作\3dgp.00\Data\shader\static_mesh_vs.cod
^board_ps.hlsl
^board_vs.hlsl
^geometric_primitive_ps.hlsl
^geometric_primitive_vs.hlsl
^model_ps.hlsl
^model_vs.hlsl
^skinned_mesh_ps.hlsl
^skinned_mesh_vs.hlsl
^sprite_ps.hlsl
^sprite_vs.hlsl
^static_mesh_ps.hlsl
^static_mesh_vs.hlsl
D:\後期チーム制作\3dgp.00\Data\shader\board_ps.cso
D:\後期チーム制作\3dgp.00\Data\shader\board_vs.cso
D:\後期チーム制作\3dgp.00\Data\shader\geometric_primitive_ps.cso
D:\後期チーム制作\3dgp.00\Data\shader\geometric_primitive_vs.cso
D:\後期チーム制作\3dgp.00\Data\shader\model_ps.cso
D:\後期チーム制作\3dgp.00\Data\shader\model_vs.cso
D:\後期チーム制作\3dgp.00\Data\shader\skinned_mesh_ps.cso
D:\後期チーム制作\3dgp.00\Data\shader\skinned_mesh_vs.cso
D:\後期チーム制作\3dgp.00\Data\shader\sprite_ps.cso
D:\後期チーム制作\3dgp.00\Data\shader\sprite_vs.cso
D:\後期チーム制作\3dgp.00\Data\shader\static_mesh_ps.cso
D:\後期チーム制作\3dgp.00\Data\shader\static_mesh_vs.cod
D:\後期チーム制作\3dgp.00\Data\shader\board_ps.cod
D:\後期チーム制作\3dgp.00\Data\shader\board_vs.cod
D:\後期チーム制作\3dgp.00\Data\shader\geometric_primitive_ps.cod
D:\後期チーム制作\3dgp.00\Data\shader\geometric_primitive_vs.cod
D:\後期チーム制作\3dgp.00\Data\shader\model_ps.cod
D:\後期チーム制作\3dgp.00\Data\shader\model_vs.cso
D:\後期チーム制作\3dgp.00\Data\shader\skinned_mesh_ps.cod
D:\後期チーム制作\3dgp.00\Data\shader\skinned_mesh_vs.cod
D:\後期チーム制作\3dgp.00\Data\shader\sprite_ps.cod
D:\後期チーム制作\3dgp.00\Data\shader\sprite_vs.cod
D:\後期チーム制作\3dgp.00\Data\shader\static_mesh_ps.cod
D:\後期チーム制作\3dgp.00\Data\shader\static_mesh_vs.cod
^board_ps.hlsl
^board_vs.hlsl
^geometric_primitive_ps.hlsl
^geometric_primitive_vs.hlsl
^model_ps.hlsl
^model_vs.hlsl
^skinned_mesh_ps.hlsl
^skinned_mesh_vs.hlsl
^sprite_ps.hlsl
^sprite_vs.hlsl
^static_mesh_ps.hlsl
^static_mesh_vs.hlsl
D:\後期チーム制作\3dgp.00\Data\shader\board_ps.cso
D:\後期チーム制作\3dgp.00\Data\shader\board_vs.cso
D:\後期チーム制作\3dgp.00\Data\shader\geometric_primitive_ps.cso
D:\後期チーム制作\3dgp.00\Data\shader\geometric_primitive_vs.cso
D:\後期チーム制作\3dgp.00\Data\shader\model_ps.cso
D:\後期チーム制作\3dgp.00\Data\shader\model_vs.cso
D:\後期チーム制作\3dgp.00\Data\shader\skinned_mesh_ps.cso
D:\後期チーム制作\3dgp.00\Data\shader\skinned_mesh_vs.cso
D:\後期チーム制作\3dgp.00\Data\shader\sprite_ps.cso
D:\後期チーム制作\3dgp.00\Data\shader\sprite_vs.cso
D:\後期チーム制作\3dgp.00\Data\shader\static_mesh_ps.cso
D:\後期チーム制作\3dgp.00\Data\shader\static_mesh_vs.cod
D:\後期チーム制作\3dgp.00\Data\shader\board_ps.cod
D:\後期チーム制作\3dgp.00\Data\shader\board_vs.cod
D:\後期チーム制作\3dgp.00\Data\shader\geometric_primitive_ps.cod
D:\後期チーム制作\3dgp.00\Data\shader\geometric_primitive_vs.cod
D:\後期チーム制作\3dgp.00\Data\shader\model_ps.cod
D:\後期チーム制作\3dgp.00\Data\shader\model_vs.cso
D:\後期チーム制作\3dgp.00\Data\shader\skinned_mesh_ps.cod
D:\後期チーム制作\3dgp.00\Data\shader\skinned_mesh_vs.cod
D:\後期チーム制作\3dgp.00\Data\shader\sprite_ps.cod
D:\後期チーム制作\3dgp.00\Data\shader\sprite_vs.cod
D:\後期チーム制作\3dgp.00\Data\shader\static_mesh_ps.cod
D:\後期チーム制作\3dgp.00\Data\shader\static_mesh_vs.cod
^board_ps.hlsl
^board_vs.hlsl
^geometric_primitive_ps.hlsl
^geometric_primitive_vs.hlsl
^model_ps.hlsl
^model_vs.hlsl
^skinned_mesh_ps.hlsl
^skinned_mesh_vs.hlsl
^sprite_ps.hlsl
^sprite_vs.hlsl
^static_mesh_ps.hlsl
^static_mesh_vs.hlsl
D:\後期チーム制作\3dgp.00\Data\shader\board_ps.cso
D:\後期チーム制作\3dgp.00\Data\shader\board_vs.cso
D:\後期チーム制作\3dgp.00\Data\shader\geometric_primitive_ps.cso
D:\後期チーム制作\3dgp.00\Data\shader\geometric_primitive_vs.cso
D:\後期チーム制作\3dgp.00\Data\shader\model_ps.cso
D:\後期チーム制作\3dgp.00\Data\shader\model_vs.cso
D:\後期チーム制作\3dgp.00\Data\shader\skinned_mesh_ps.cso
D:\後期チーム制作\3dgp.00\Data\shader\skinned_mesh_vs.cso
D:\後期チーム制作\3dgp.00\Data\shader\sprite_ps.cso
D:\後期チーム制作\3dgp.00\Data\shader\sprite_vs.cso
D:\後期チーム制作\3dgp.00\Data\shader\static_mesh_ps.cso
D:\後期チーム制作\3dgp.00\Data\shader\static_mesh_vs.cod
D:\後期チーム制作\3dgp.00\Data\shader\board_ps.cod
D:\後期チーム制作\3dgp.00\Data\shader\board_vs.cod
D:\後期チーム制作\3dgp.00\Data\shader\geometric_primitive_ps.cod
D:\後期チーム制作\3dgp.00\Data\shader\geometric_primitive_vs.cod
D:\後期チーム制作\3dgp.00\Data\shader\model_ps.cod
D:\後期チーム制作\3dgp.00\Data\shader\model_vs.cso
D:\後期チーム制作\3dgp.00\Data\shader\skinned_mesh_ps.cod
D:\後期チーム制作\3dgp.00\Data\shader\skinned_mesh_vs.cod
D:\後期チーム制作\3dgp.00\Data\shader\sprite_ps.cod
D:\後期チーム制作\3dgp.00\Data\shader\sprite_vs.cod
D:\後期チーム制作\3dgp.00\Data\shader\static_mesh_ps.cod
D:\後期チーム制作\3dgp.00\Data\shader\static_mesh_vs.cod
^board_ps.hlsl
^board_vs.hlsl
^geometric_primitive_ps.hlsl
^geometric_primitive_vs.hlsl
^model_ps.hlsl
^model_vs.hlsl
^skinned_mesh_ps.hlsl
^skinned_mesh_vs.hlsl
^sprite_ps.hlsl
^sprite_vs.hlsl
^static_mesh_ps.hlsl
^static_mesh_vs.hlsl
D:\後期チーム制作\3dgp.00\Data\shader\board_ps.cso
D:\後期チーム制作\3dgp.00\Data\shader\board_vs.cso
D:\後期チーム制作\3dgp.00\Data\shader\geometric_primitive_ps.cso
D:\後期チーム制作\3dgp.00\Data\shader\geometric_primitive_vs.cso
D:\後期チーム制作\3dgp.00\Data\shader\model_ps.cso
D:\後期チーム制作\3dgp.00\Data\shader\model_vs.cso
D:\後期チーム制作\3dgp.00\Data\shader\skinned_mesh_ps.cso
D:\後期チーム制作\3dgp.00\Data\shader\skinned_mesh_vs.cso
D:\後期チーム制作\3dgp.00\Data\shader\sprite_ps.cso
D:\後期チーム制作\3dgp.00\Data\shader\sprite_vs.cso
D:\後期チーム制作\3dgp.00\Data\shader\static_mesh_ps.cso
D:\後期チーム制作\3dgp.00\Data\shader\static_mesh_vs.cod
D:\後期チーム制作\3dgp.00\Data\shader\board_ps.cod
D:\後期チーム制作\3dgp.00\Data\shader\board_vs.cod
D:\後期チーム制作\3dgp.00\Data\shader\geometric_primitive_ps.cod
D:\後期チーム制作\3dgp.00\Data\shader\geometric_primitive_vs.cod
D:\後期チーム制作\3dgp.00\Data\shader\model_ps.cod
D:\後期チーム制作\3dgp.00\Data\shader\model_vs.cso
D:\後期チーム制作\3dgp.00\Data\shader\skinned_mesh_ps.cod
D:\後期チーム制作\3dgp.00\Data\shader\skinned_mesh_vs.cod
D:\後期チーム制作\3dgp.00\Data\shader\sprite_ps.cod
D:\後期チーム制作\3dgp.00\Data\shader\sprite_vs.cod
D:\後期チーム制作\3dgp.00\Data\shader\static_mesh_ps.cod
D:\後期チーム制作\3dgp.00\Data\shader\static_mesh_vs.cod
^board_ps.hlsl
^board_vs.hlsl
^geometric_primitive_ps.hlsl
^geometric_primitive_vs.hlsl
^model_ps.hlsl
^model_vs.hlsl
^skinned_mesh_ps.hlsl
^skinned_mesh_vs.hlsl
^sprite_ps.hlsl
^sprite_vs.hlsl
^static_mesh_ps.hlsl
^static_mesh_vs.hlsl
D:\後期チーム制作\3dgp.00\Data\shader\board_ps.cso
D:\後期チーム制作\3dgp.00\Data\shader\board_vs.cso
D:\後期チーム制作\3dgp.00\Data\shader\geometric_primitive_ps.cso
D:\後期チーム制作\3dgp.00\Data\shader\geometric_primitive_vs.cso
D:\後期チーム制作\3dgp.00\Data\shader\model_ps.cso
D:\後期チーム制作\3dgp.00\Data\shader\model_vs.cso
D:\後期チーム制作\3dgp.00\Data\shader\skinned_mesh_ps.cso
D:\後期チーム制作\3dgp.00\Data\shader\skinned_mesh_vs.cso
D:\後期チーム制作\3dgp.00\Data\shader\sprite_ps.cso
D:\後期チーム制作\3dgp.00\Data\shader\sprite_vs.cso
D:\後期チーム制作\3dgp.00\Data\shader\static_mesh_ps.cso
D:\後期チーム制作\3dgp.00\Data\shader\static_mesh_vs.cod
D:\後期チーム制作\3dgp.00\Data\shader\board_ps.cod
D:\後期チーム制作\3dgp.00\Data\shader\board_vs.cod
D:\後期チーム制作\3dgp.00\Data\shader\geometric_primitive_ps.cod
D:\後期チーム制作\3dgp.00\Data\shader\geometric_primitive_vs.cod
D:\後期チーム制作\3dgp.00\Data\shader\model_ps.cod
D:\後期チーム制作\3dgp.00\Data\shader\model_vs.cso
D:\後期チーム制作\3dgp.00\Data\shader\skinned_mesh_ps.cod
D:\後期チーム制作\3dgp.00\Data\shader\skinned_mesh_vs.cod
D:\後期チーム制作\3dgp.00\Data\shader\sprite_ps.cod
D:\後期チーム制作\3dgp.00\Data\shader\sprite_vs.cod
D:\後期チーム制作\3dgp.00\Data\shader\static_mesh_ps.cod
D:\後期チーム制作\3dgp.00\Data\shader\static_mesh_vs.cod
