^D:\後期チーム制作\3DGP.00\BOARD_PS.HLSL
C:\WINDOWS\GLOBALIZATION\SORTING\SORTDEFAULT.NLS
C:\PROGRAM FILES (X86)\WINDOWS KITS\8.1\BIN\X86\FXC.EXE
D:\後期チーム制作\3DGP.00\BOARD.HLSLI
^D:\後期チーム制作\3DGP.00\BOARD_VS.HLSL
C:\WINDOWS\GLOBALIZATION\SORTING\SORTDEFAULT.NLS
C:\PROGRAM FILES (X86)\WINDOWS KITS\8.1\BIN\X86\FXC.EXE
D:\後期チーム制作\3DGP.00\BOARD.HLSLI
^D:\後期チーム制作\3DGP.00\GEOMETRIC_PRIMITIVE_PS.HLSL
C:\WINDOWS\GLOBALIZATION\SORTING\SORTDEFAULT.NLS
C:\PROGRAM FILES (X86)\WINDOWS KITS\8.1\BIN\X86\FXC.EXE
D:\後期チーム制作\3DGP.00\GEOMETRIC_PRIMITIVE.HLSLI
^D:\後期チーム制作\3DGP.00\GEOMETRIC_PRIMITIVE_VS.HLSL
C:\WINDOWS\GLOBALIZATION\SORTING\SORTDEFAULT.NLS
C:\PROGRAM FILES (X86)\WINDOWS KITS\8.1\BIN\X86\FXC.EXE
D:\後期チーム制作\3DGP.00\GEOMETRIC_PRIMITIVE.HLSLI
^D:\後期チーム制作\3DGP.00\MODEL_PS.HLSL
C:\WINDOWS\GLOBALIZATION\SORTING\SORTDEFAULT.NLS
C:\PROGRAM FILES (X86)\WINDOWS KITS\8.1\BIN\X86\FXC.EXE
D:\後期チーム制作\3DGP.00\MODEL.HLSLI
^D:\後期チーム制作\3DGP.00\MODEL_VS.HLSL
C:\WINDOWS\GLOBALIZATION\SORTING\SORTDEFAULT.NLS
C:\PROGRAM FILES (X86)\WINDOWS KITS\8.1\BIN\X86\FXC.EXE
D:\後期チーム制作\3DGP.00\MODEL.HLSLI
^D:\後期チーム制作\3DGP.00\SKINNED_MESH_PS.HLSL
C:\WINDOWS\GLOBALIZATION\SORTING\SORTDEFAULT.NLS
C:\PROGRAM FILES (X86)\WINDOWS KITS\8.1\BIN\X86\FXC.EXE
D:\後期チーム制作\3DGP.00\SKINNED_MESH.HLSLI
^D:\後期チーム制作\3DGP.00\SKINNED_MESH_VS.HLSL
C:\WINDOWS\GLOBALIZATION\SORTING\SORTDEFAULT.NLS
C:\PROGRAM FILES (X86)\WINDOWS KITS\8.1\BIN\X86\FXC.EXE
D:\後期チーム制作\3DGP.00\SKINNED_MESH.HLSLI
^D:\後期チーム制作\3DGP.00\SPRITE_PS.HLSL
C:\WINDOWS\GLOBALIZATION\SORTING\SORTDEFAULT.NLS
C:\PROGRAM FILES (X86)\WINDOWS KITS\8.1\BIN\X86\FXC.EXE
D:\後期チーム制作\3DGP.00\SPRITE.HLSLI
^D:\後期チーム制作\3DGP.00\SPRITE_VS.HLSL
C:\WINDOWS\GLOBALIZATION\SORTING\SORTDEFAULT.NLS
C:\PROGRAM FILES (X86)\WINDOWS KITS\8.1\BIN\X86\FXC.EXE
D:\後期チーム制作\3DGP.00\SPRITE.HLSLI
^D:\後期チーム制作\3DGP.00\STATIC_MESH_PS.HLSL
C:\WINDOWS\GLOBALIZATION\SORTING\SORTDEFAULT.NLS
C:\PROGRAM FILES (X86)\WINDOWS KITS\8.1\BIN\X86\FXC.EXE
D:\後期チーム制作\3DGP.00\STATIC_MESH.HLSLI
^D:\後期チーム制作\3DGP.00\STATIC_MESH_VS.HLSL
C:\WINDOWS\GLOBALIZATION\SORTING\SORTDEFAULT.NLS
C:\PROGRAM FILES (X86)\WINDOWS KITS\8.1\BIN\X86\FXC.EXE
D:\後期チーム制作\3DGP.00\STATIC_MESH.HLSLI
